%!PS-Adobe-3.0 EPSF-3.0
%%Creator: cairo 1.14.4 (http://cairographics.org)
%%CreationDate: Sun Jan 17 14:50:47 2016
%%Pages: 1
%%DocumentData: Clean7Bit
%%LanguageLevel: 2
%%BoundingBox: 0 0 320 160
%%EndComments
%%BeginProlog
save
50 dict begin
/q { gsave } bind def
/Q { grestore } bind def
/cm { 6 array astore concat } bind def
/w { setlinewidth } bind def
/J { setlinecap } bind def
/j { setlinejoin } bind def
/M { setmiterlimit } bind def
/d { setdash } bind def
/m { moveto } bind def
/l { lineto } bind def
/c { curveto } bind def
/h { closepath } bind def
/re { exch dup neg 3 1 roll 5 3 roll moveto 0 rlineto
      0 exch rlineto 0 rlineto closepath } bind def
/S { stroke } bind def
/f { fill } bind def
/f* { eofill } bind def
/n { newpath } bind def
/W { clip } bind def
/W* { eoclip } bind def
/BT { } bind def
/ET { } bind def
/pdfmark where { pop globaldict /?pdfmark /exec load put }
    { globaldict begin /?pdfmark /pop load def /pdfmark
    /cleartomark load def end } ifelse
/BDC { mark 3 1 roll /BDC pdfmark } bind def
/EMC { mark /EMC pdfmark } bind def
/cairo_store_point { /cairo_point_y exch def /cairo_point_x exch def } def
/Tj { show currentpoint cairo_store_point } bind def
/TJ {
  {
    dup
    type /stringtype eq
    { show } { -0.001 mul 0 cairo_font_matrix dtransform rmoveto } ifelse
  } forall
  currentpoint cairo_store_point
} bind def
/cairo_selectfont { cairo_font_matrix aload pop pop pop 0 0 6 array astore
    cairo_font exch selectfont cairo_point_x cairo_point_y moveto } bind def
/Tf { pop /cairo_font exch def /cairo_font_matrix where
      { pop cairo_selectfont } if } bind def
/Td { matrix translate cairo_font_matrix matrix concatmatrix dup
      /cairo_font_matrix exch def dup 4 get exch 5 get cairo_store_point
      /cairo_font where { pop cairo_selectfont } if } bind def
/Tm { 2 copy 8 2 roll 6 array astore /cairo_font_matrix exch def
      cairo_store_point /cairo_font where { pop cairo_selectfont } if } bind def
/g { setgray } bind def
/rg { setrgbcolor } bind def
/d1 { setcachedevice } bind def
%%EndProlog
%%BeginSetup
%%EndSetup
%%Page: 1 1
%%BeginPageSetup
%%PageBoundingBox: 0 0 320 160
%%EndPageSetup
q 0 0 320 160 rectclip q
0 g
2.974156 w
0 J
0 j
[] 0.0 d
4 M q 1 0 0 -1 0 160 cm
1.488 1.488 157.023 157.023 re S Q
2.572992 w
q 1 0 0 -1 0 160 cm
40.262 129.965 m 40.262 133.672 37.258 136.68 33.551 136.68 c 29.844 136.68
 26.836 133.672 26.836 129.965 c 26.836 126.258 29.844 123.254 33.551 123.254
 c 37.258 123.254 40.262 126.258 40.262 129.965 c h
40.262 129.965 m S Q
q 1 0 0 -1 0 160 cm
131.168 37.309 m 131.168 41.016 128.164 44.02 124.457 44.02 c 120.746 44.02
 117.742 41.016 117.742 37.309 c 117.742 33.598 120.746 30.594 124.457 30.594
 c 128.164 30.594 131.168 33.598 131.168 37.309 c h
131.168 37.309 m S Q
0.48 w
[ 0.96 0.96] 0 d
q 1 0 0 -1 0 160 cm
39.418 123.629 m 51.773 111.711 l S Q
1.6 w
[] 0.0 d
q 1 0 0 -1 0 160 cm
51.887 111.863 m 106.527 55.656 l S Q
0.48 w
[ 0.96 0.96] 0 d
q 1 0 0 -1 0 160 cm
107.137 55.102 m 119.496 43.184 l S Q
2.974156 w
[] 0.0 d
q 1 0 0 -1 0 160 cm
161.488 1.488 157.023 157.023 re S Q
2.572992 w
q 1 0 0 -1 0 160 cm
213.309 117.668 m 213.309 121.375 210.305 124.383 206.594 124.383 c 202.887
 124.383 199.883 121.375 199.883 117.668 c 199.883 113.961 202.887 110.957
 206.594 110.957 c 210.305 110.957 213.309 113.961 213.309 117.668 c h
213.309 117.668 m S Q
q 1 0 0 -1 0 160 cm
278.516 49.801 m 278.516 53.508 275.512 56.516 271.805 56.516 c 268.098
 56.516 265.09 53.508 265.09 49.801 c 265.09 46.094 268.098 43.086 271.805
 43.086 c 275.512 43.086 278.516 46.094 278.516 49.801 c h
278.516 49.801 m S Q
1.6 w
q 1 0 0 -1 0 160 cm
211.887 111.863 m 266.527 55.656 l S Q
Q Q
showpage
%%Trailer
end restore
%%EOF
