<?xml version="1.0" encoding="UTF-8" standalone="no"?>
<!-- Created with Inkscape (http://www.inkscape.org/) -->

<svg
   xmlns:dc="http://purl.org/dc/elements/1.1/"
   xmlns:cc="http://creativecommons.org/ns#"
   xmlns:rdf="http://www.w3.org/1999/02/22-rdf-syntax-ns#"
   xmlns:svg="http://www.w3.org/2000/svg"
   xmlns="http://www.w3.org/2000/svg"
   xmlns:sodipodi="http://sodipodi.sourceforge.net/DTD/sodipodi-0.dtd"
   xmlns:inkscape="http://www.inkscape.org/namespaces/inkscape"
   width="210mm"
   height="297mm"
   viewBox="0 0 744.09448819 1052.3622047"
   id="svg2"
   version="1.1"
   inkscape:version="0.91 r13725"
   sodipodi:docname="iterative_constraint.svg">
  <defs
     id="defs4">
    <marker
       inkscape:isstock="true"
       style="overflow:visible;"
       id="marker10100"
       refX="0.0"
       refY="0.0"
       orient="auto"
       inkscape:stockid="Arrow1Mend">
      <path
         transform="scale(0.4) rotate(180) translate(10,0)"
         style="fill-rule:evenodd;stroke:#000000;stroke-width:1pt;stroke-opacity:1;fill:#000000;fill-opacity:1"
         d="M 0.0,0.0 L 5.0,-5.0 L -12.5,0.0 L 5.0,5.0 L 0.0,0.0 z "
         id="path10102" />
    </marker>
    <marker
       inkscape:stockid="Arrow1Mend"
       orient="auto"
       refY="0.0"
       refX="0.0"
       id="marker8054"
       style="overflow:visible;"
       inkscape:isstock="true"
       inkscape:collect="always">
      <path
         id="path8056"
         d="M 0.0,0.0 L 5.0,-5.0 L -12.5,0.0 L 5.0,5.0 L 0.0,0.0 z "
         style="fill-rule:evenodd;stroke:#000000;stroke-width:1pt;stroke-opacity:1;fill:#000000;fill-opacity:1"
         transform="scale(0.4) rotate(180) translate(10,0)" />
    </marker>
    <marker
       inkscape:stockid="Arrow1Mend"
       orient="auto"
       refY="0.0"
       refX="0.0"
       id="marker5399"
       style="overflow:visible;"
       inkscape:isstock="true">
      <path
         id="path5401"
         d="M 0.0,0.0 L 5.0,-5.0 L -12.5,0.0 L 5.0,5.0 L 0.0,0.0 z "
         style="fill-rule:evenodd;stroke:#000000;stroke-width:1pt;stroke-opacity:1;fill:#000000;fill-opacity:1"
         transform="scale(0.4) rotate(180) translate(10,0)" />
    </marker>
    <marker
       inkscape:stockid="Arrow1Mend"
       orient="auto"
       refY="0.0"
       refX="0.0"
       id="marker4965"
       style="overflow:visible;"
       inkscape:isstock="true">
      <path
         id="path4967"
         d="M 0.0,0.0 L 5.0,-5.0 L -12.5,0.0 L 5.0,5.0 L 0.0,0.0 z "
         style="fill-rule:evenodd;stroke:#000000;stroke-width:1pt;stroke-opacity:1;fill:#000000;fill-opacity:1"
         transform="scale(0.4) rotate(180) translate(10,0)" />
    </marker>
    <marker
       inkscape:stockid="Arrow1Mend"
       orient="auto"
       refY="0.0"
       refX="0.0"
       id="Arrow1Mend"
       style="overflow:visible;"
       inkscape:isstock="true">
      <path
         id="path4358"
         d="M 0.0,0.0 L 5.0,-5.0 L -12.5,0.0 L 5.0,5.0 L 0.0,0.0 z "
         style="fill-rule:evenodd;stroke:#000000;stroke-width:1pt;stroke-opacity:1;fill:#000000;fill-opacity:1"
         transform="scale(0.4) rotate(180) translate(10,0)" />
    </marker>
    <marker
       inkscape:stockid="Arrow1Lend"
       orient="auto"
       refY="0.0"
       refX="0.0"
       id="Arrow1Lend"
       style="overflow:visible;"
       inkscape:isstock="true">
      <path
         id="path4352"
         d="M 0.0,0.0 L 5.0,-5.0 L -12.5,0.0 L 5.0,5.0 L 0.0,0.0 z "
         style="fill-rule:evenodd;stroke:#000000;stroke-width:1pt;stroke-opacity:1;fill:#000000;fill-opacity:1"
         transform="scale(0.8) rotate(180) translate(12.5,0)" />
    </marker>
    <marker
       inkscape:stockid="Arrow1Mend"
       orient="auto"
       refY="0"
       refX="0"
       id="marker5399-1"
       style="overflow:visible"
       inkscape:isstock="true">
      <path
         inkscape:connector-curvature="0"
         id="path5401-3"
         d="M 0,0 5,-5 -12.5,0 5,5 0,0 Z"
         style="fill:#000000;fill-opacity:1;fill-rule:evenodd;stroke:#000000;stroke-width:1pt;stroke-opacity:1"
         transform="matrix(-0.4,0,0,-0.4,-4,0)" />
    </marker>
    <marker
       inkscape:isstock="true"
       style="overflow:visible"
       id="marker10100-2"
       refX="0"
       refY="0"
       orient="auto"
       inkscape:stockid="Arrow1Mend">
      <path
         inkscape:connector-curvature="0"
         transform="matrix(-0.4,0,0,-0.4,-4,0)"
         style="fill:#000000;fill-opacity:1;fill-rule:evenodd;stroke:#000000;stroke-width:1pt;stroke-opacity:1"
         d="M 0,0 5,-5 -12.5,0 5,5 0,0 Z"
         id="path10102-5" />
    </marker>
    <marker
       inkscape:stockid="Arrow1Mend"
       orient="auto"
       refY="0"
       refX="0"
       id="marker5399-1-2"
       style="overflow:visible"
       inkscape:isstock="true">
      <path
         inkscape:connector-curvature="0"
         id="path5401-3-3"
         d="M 0,0 5,-5 -12.5,0 5,5 0,0 Z"
         style="fill:#000000;fill-opacity:1;fill-rule:evenodd;stroke:#000000;stroke-width:1pt;stroke-opacity:1"
         transform="matrix(-0.4,0,0,-0.4,-4,0)" />
    </marker>
  </defs>
  <sodipodi:namedview
     id="base"
     pagecolor="#ffffff"
     bordercolor="#666666"
     borderopacity="1.0"
     inkscape:pageopacity="0.0"
     inkscape:pageshadow="2"
     inkscape:zoom="0.7"
     inkscape:cx="630.91631"
     inkscape:cy="-22.887581"
     inkscape:document-units="px"
     inkscape:current-layer="layer1"
     showgrid="false"
     inkscape:window-width="1920"
     inkscape:window-height="1027"
     inkscape:window-x="0"
     inkscape:window-y="0"
     inkscape:window-maximized="1" />
  <metadata
     id="metadata7">
    <rdf:RDF>
      <cc:Work
         rdf:about="">
        <dc:format>image/svg+xml</dc:format>
        <dc:type
           rdf:resource="http://purl.org/dc/dcmitype/StillImage" />
        <dc:title></dc:title>
      </cc:Work>
    </rdf:RDF>
  </metadata>
  <g
     inkscape:label="Layer 1"
     inkscape:groupmode="layer"
     id="layer1">
    <g
       id="g12565">
      <path
         inkscape:connector-curvature="0"
         id="path8017"
         d="M 98.214286,963.79078 115.35714,957.3622"
         style="fill:none;fill-rule:evenodd;stroke:#ffd500;stroke-width:3;stroke-linecap:butt;stroke-linejoin:miter;stroke-opacity:1;stroke-miterlimit:4;stroke-dasharray:none" />
      <path
         inkscape:connector-curvature="0"
         id="path8015"
         d="m 100.53571,940.93363 15,8.75"
         style="fill:none;fill-rule:evenodd;stroke:#00ffff;stroke-width:3;stroke-linecap:butt;stroke-linejoin:miter;stroke-opacity:1;stroke-miterlimit:4;stroke-dasharray:none" />
      <path
         inkscape:connector-curvature="0"
         id="path8013"
         d="m 92.142857,945.57649 -1.071428,13.92857"
         style="fill:none;fill-rule:evenodd;stroke:#ff00f4;stroke-width:3;stroke-linecap:butt;stroke-linejoin:miter;stroke-opacity:1;stroke-miterlimit:4;stroke-dasharray:none" />
      <rect
         y="854.22107"
         x="1.8588473"
         height="196.2823"
         width="196.2823"
         id="rect4136"
         style="fill:none;fill-opacity:1;stroke:#000000;stroke-width:3.71769452;stroke-miterlimit:4;stroke-dasharray:none;stroke-dashoffset:0;stroke-opacity:1" />
      <circle
         r="8.39188"
         cy="967.81403"
         cx="90.609154"
         id="path4138"
         style="fill:#d10000;fill-opacity:1;stroke:#000000;stroke-width:3.21623945;stroke-miterlimit:4;stroke-dasharray:none;stroke-dashoffset:0;stroke-opacity:1" />
      <circle
         r="8.39188"
         cy="953.36719"
         cx="123.23861"
         id="path4138-4"
         style="fill:#009300;fill-opacity:1;stroke:#000000;stroke-width:3.21623945;stroke-miterlimit:4;stroke-dasharray:none;stroke-dashoffset:0;stroke-opacity:1" />
      <circle
         r="8.39188"
         cy="937.20477"
         cx="93.43911"
         id="path4138-1"
         style="fill:#0088ff;fill-opacity:1;stroke:#000000;stroke-width:3.21623945;stroke-miterlimit:4;stroke-dasharray:none;stroke-dashoffset:0;stroke-opacity:1" />
    </g>
    <g
       id="g12580">
      <path
         sodipodi:nodetypes="cc"
         inkscape:connector-curvature="0"
         id="path8052"
         d="m 286.27365,934.1923 c -20.25779,-8.99543 19.58544,-56.92955 -63.02994,-25.5243"
         style="fill:none;fill-rule:evenodd;stroke:#000000;stroke-width:2;stroke-linecap:butt;stroke-linejoin:miter;stroke-miterlimit:4;stroke-dasharray:none;stroke-opacity:1;marker-end:url(#marker8054)" />
      <path
         inkscape:connector-curvature="0"
         id="path8017-1"
         d="m 298.2143,963.79074 17.14286,-6.4286"
         style="fill:none;fill-rule:evenodd;stroke:#ffd500;stroke-width:3;stroke-linecap:butt;stroke-linejoin:miter;stroke-miterlimit:4;stroke-dasharray:none;stroke-opacity:1" />
      <path
         inkscape:connector-curvature="0"
         id="path8015-3"
         d="m 300.53573,940.93364 15,8.75"
         style="fill:none;fill-rule:evenodd;stroke:#00ffff;stroke-width:3;stroke-linecap:butt;stroke-linejoin:miter;stroke-miterlimit:4;stroke-dasharray:none;stroke-opacity:1" />
      <path
         inkscape:connector-curvature="0"
         id="path8013-8"
         d="m 292.14287,945.57644 -1.07143,13.9286"
         style="fill:none;fill-rule:evenodd;stroke:#ff00f4;stroke-width:3;stroke-linecap:butt;stroke-linejoin:miter;stroke-miterlimit:4;stroke-dasharray:none;stroke-opacity:1" />
      <rect
         y="854.22107"
         x="201.85884"
         height="196.2823"
         width="196.2823"
         id="rect4136-5"
         style="fill:none;fill-opacity:1;stroke:#000000;stroke-width:3.71769452;stroke-miterlimit:4;stroke-dasharray:none;stroke-dashoffset:0;stroke-opacity:1" />
      <circle
         r="8.39188"
         cy="967.81403"
         cx="290.60916"
         id="path4138-11"
         style="fill:#d10000;fill-opacity:1;stroke:#000000;stroke-width:3.21623945;stroke-miterlimit:4;stroke-dasharray:none;stroke-dashoffset:0;stroke-opacity:1" />
      <circle
         r="8.39188"
         cy="953.36713"
         cx="323.23862"
         id="path4138-4-1"
         style="fill:#009300;fill-opacity:1;stroke:#000000;stroke-width:3.21623945;stroke-miterlimit:4;stroke-dasharray:none;stroke-dashoffset:0;stroke-opacity:1" />
      <circle
         r="8.39188"
         cy="937.20477"
         cx="293.43912"
         id="path4138-1-5"
         style="fill:#0088ff;fill-opacity:1;stroke:#000000;stroke-width:3.21623945;stroke-miterlimit:4;stroke-dasharray:none;stroke-dashoffset:0;stroke-opacity:1" />
      <path
         sodipodi:nodetypes="cc"
         inkscape:connector-curvature="0"
         id="path8832"
         d="m 293.57143,959.50506 c 3.37902,-28.69531 73.14305,80.35764 37.14286,-67.85714"
         style="fill:none;fill-rule:evenodd;stroke:#000000;stroke-width:2;stroke-linecap:butt;stroke-linejoin:miter;stroke-miterlimit:4;stroke-dasharray:none;stroke-opacity:1;marker-end:url(#marker5399-1)" />
      <path
         sodipodi:nodetypes="cc"
         inkscape:connector-curvature="0"
         id="path10092"
         d="m 323.57143,961.29078 c -1.91211,26.53384 -45.4523,27.67266 -60.35714,70.71432"
         style="fill:none;fill-rule:evenodd;stroke:#000000;stroke-width:2;stroke-linecap:butt;stroke-linejoin:miter;stroke-miterlimit:4;stroke-dasharray:none;stroke-opacity:1;marker-end:url(#marker10100)" />
    </g>
    <g
       id="g12592">
      <path
         sodipodi:nodetypes="cc"
         inkscape:connector-curvature="0"
         id="path8015-3-9-3"
         d="m 424.03318,918.95404 35.35714,104.82136"
         style="fill:none;fill-rule:evenodd;stroke:#00ffff;stroke-width:1;stroke-linecap:butt;stroke-linejoin:miter;stroke-miterlimit:4;stroke-dasharray:2, 1;stroke-dashoffset:0;stroke-opacity:1" />
      <path
         sodipodi:nodetypes="cc"
         inkscape:connector-curvature="0"
         id="path8013-8-3-8"
         d="m 430.35562,908.52223 89.8423,-17.38617"
         style="fill:none;fill-rule:evenodd;stroke:#ff00f4;stroke-width:1;stroke-linecap:butt;stroke-linejoin:miter;stroke-miterlimit:4;stroke-dasharray:2,1;stroke-opacity:1;stroke-dashoffset:0" />
      <path
         sodipodi:nodetypes="cc"
         inkscape:connector-curvature="0"
         id="path8017-1-9-7"
         d="M 465.9461,1025.3466 526.52877,897.04524"
         style="fill:none;fill-rule:evenodd;stroke:#ffd500;stroke-width:1;stroke-linecap:butt;stroke-linejoin:miter;stroke-miterlimit:4;stroke-dasharray:2,2;stroke-opacity:1;stroke-dashoffset:0" />
      <path
         inkscape:connector-curvature="0"
         id="path8017-1-9"
         d="m 494.42462,965.88578 7.54966,-16.67954"
         style="fill:none;fill-rule:evenodd;stroke:#ffd500;stroke-width:3;stroke-linecap:butt;stroke-linejoin:miter;stroke-miterlimit:4;stroke-dasharray:none;stroke-opacity:1" />
      <path
         inkscape:connector-curvature="0"
         id="path8015-3-9"
         d="m 436.72532,955.78699 5.69092,16.40658"
         style="fill:none;fill-rule:evenodd;stroke:#00ffff;stroke-width:3;stroke-linecap:butt;stroke-linejoin:miter;stroke-miterlimit:4;stroke-dasharray:none;stroke-opacity:1" />
      <path
         inkscape:connector-curvature="0"
         id="path8013-8-3"
         d="m 481.82295,898.77993 -13.82785,1.98612"
         style="fill:none;fill-rule:evenodd;stroke:#ff00f4;stroke-width:3;stroke-linecap:butt;stroke-linejoin:miter;stroke-miterlimit:4;stroke-dasharray:none;stroke-opacity:1" />
      <rect
         y="854.22107"
         x="401.85886"
         height="196.2823"
         width="196.2823"
         id="rect4136-5-9"
         style="fill:none;fill-opacity:1;stroke:#000000;stroke-width:3.71769452;stroke-miterlimit:4;stroke-dasharray:none;stroke-dashoffset:0;stroke-opacity:1" />
      <circle
         r="8.39188"
         cy="888.51703"
         cx="530.51019"
         id="path4138-11-1"
         style="fill:#d10000;fill-opacity:1;stroke:#000000;stroke-width:3.21623945;stroke-miterlimit:4;stroke-dasharray:none;stroke-dashoffset:0;stroke-opacity:1" />
      <circle
         r="8.39188"
         cy="1032.6641"
         cx="462.62949"
         id="path4138-4-1-1"
         style="fill:#009300;fill-opacity:1;stroke:#000000;stroke-width:3.21623945;stroke-miterlimit:4;stroke-dasharray:none;stroke-dashoffset:0;stroke-opacity:1" />
      <circle
         r="8.39188"
         cy="910.9408"
         cx="421.71832"
         id="path4138-1-5-1"
         style="fill:#0088ff;fill-opacity:1;stroke:#000000;stroke-width:3.21623945;stroke-miterlimit:4;stroke-dasharray:none;stroke-dashoffset:0;stroke-opacity:1" />
    </g>
    <g
       id="g12604">
      <path
         sodipodi:nodetypes="cc"
         inkscape:connector-curvature="0"
         id="path8015-3-9-3-0"
         d="m 660.10458,910.73973 2.1899,112.65687"
         style="fill:none;fill-rule:evenodd;stroke:#00ffff;stroke-width:1;stroke-linecap:butt;stroke-linejoin:miter;stroke-miterlimit:4;stroke-dasharray:2, 1;stroke-dashoffset:0;stroke-opacity:1" />
      <path
         sodipodi:nodetypes="cc"
         inkscape:connector-curvature="0"
         id="path8017-1-9-7-3"
         d="M 664.43084,1025.9779 687.60017,904.36665"
         style="fill:none;fill-rule:evenodd;stroke:#ffd500;stroke-width:1;stroke-linecap:butt;stroke-linejoin:miter;stroke-miterlimit:4;stroke-dasharray:2, 2;stroke-dashoffset:0;stroke-opacity:1" />
      <path
         inkscape:connector-curvature="0"
         id="path8017-1-9-4"
         d="m 675.82926,964.36503 3.68312,-17.93431"
         style="fill:none;fill-rule:evenodd;stroke:#ffd500;stroke-width:3;stroke-linecap:butt;stroke-linejoin:miter;stroke-miterlimit:4;stroke-dasharray:none;stroke-opacity:1" />
      <path
         inkscape:connector-curvature="0"
         id="path8015-3-9-2"
         d="m 660.59164,949.95367 0.86434,17.34404"
         style="fill:none;fill-rule:evenodd;stroke:#00ffff;stroke-width:3;stroke-linecap:butt;stroke-linejoin:miter;stroke-miterlimit:4;stroke-dasharray:none;stroke-opacity:1" />
      <path
         inkscape:connector-curvature="0"
         id="path8013-8-3-6"
         d="m 681.82292,898.77991 -13.82785,1.98612"
         style="fill:none;fill-rule:evenodd;stroke:#ff00f4;stroke-width:3;stroke-linecap:butt;stroke-linejoin:miter;stroke-miterlimit:4;stroke-dasharray:none;stroke-opacity:1" />
      <rect
         y="854.22107"
         x="601.85883"
         height="196.2823"
         width="196.2823"
         id="rect4136-5-9-2"
         style="fill:none;fill-opacity:1;stroke:#000000;stroke-width:3.71769452;stroke-miterlimit:4;stroke-dasharray:none;stroke-dashoffset:0;stroke-opacity:1" />
      <circle
         r="8.39188"
         cy="896.73132"
         cx="689.79584"
         id="path4138-11-1-7"
         style="fill:#d10000;fill-opacity:1;stroke:#000000;stroke-width:3.21623945;stroke-miterlimit:4;stroke-dasharray:none;stroke-dashoffset:0;stroke-opacity:1" />
      <circle
         r="8.39188"
         cy="1032.6641"
         cx="662.62946"
         id="path4138-4-1-1-9"
         style="fill:#009300;fill-opacity:1;stroke:#000000;stroke-width:3.21623945;stroke-miterlimit:4;stroke-dasharray:none;stroke-dashoffset:0;stroke-opacity:1" />
      <circle
         r="8.39188"
         cy="901.65509"
         cx="659.57538"
         id="path4138-1-5-1-3"
         style="fill:#0088ff;fill-opacity:1;stroke:#000000;stroke-width:3.21623945;stroke-miterlimit:4;stroke-dasharray:none;stroke-dashoffset:0;stroke-opacity:1" />
    </g>
    <g
       id="g12615">
      <path
         sodipodi:nodetypes="cc"
         inkscape:connector-curvature="0"
         id="path8017-1-9-7-3-6"
         d="m 866.21658,965.9779 21.02648,-61.07554"
         style="fill:none;fill-rule:evenodd;stroke:#ffd500;stroke-width:1;stroke-linecap:butt;stroke-linejoin:miter;stroke-miterlimit:4;stroke-dasharray:2, 2;stroke-dashoffset:0;stroke-opacity:1" />
      <path
         inkscape:connector-curvature="0"
         id="path8017-1-9-4-5"
         d="m 874.93195,941.21772 5.83494,-17.3539"
         style="fill:none;fill-rule:evenodd;stroke:#ffd500;stroke-width:3;stroke-linecap:butt;stroke-linejoin:miter;stroke-miterlimit:4;stroke-dasharray:none;stroke-opacity:1" />
      <path
         inkscape:connector-curvature="0"
         id="path8015-3-9-2-8"
         d="m 860.59167,949.95366 0.86434,17.3441"
         style="fill:none;fill-rule:evenodd;stroke:#00ffff;stroke-width:3;stroke-linecap:butt;stroke-linejoin:miter;stroke-miterlimit:4;stroke-dasharray:none;stroke-opacity:1" />
      <path
         inkscape:connector-curvature="0"
         id="path8013-8-3-6-0"
         d="m 878.10191,912.94399 -7.36527,11.87044"
         style="fill:none;fill-rule:evenodd;stroke:#ff00f4;stroke-width:3;stroke-linecap:butt;stroke-linejoin:miter;stroke-miterlimit:4;stroke-dasharray:none;stroke-opacity:1" />
      <rect
         y="854.22107"
         x="801.85883"
         height="196.2823"
         width="196.2823"
         id="rect4136-5-9-2-1"
         style="fill:none;fill-opacity:1;stroke:#000000;stroke-width:3.71769452;stroke-miterlimit:4;stroke-dasharray:none;stroke-dashoffset:0;stroke-opacity:1" />
      <circle
         r="8.39188"
         cy="896.73132"
         cx="889.79584"
         id="path4138-11-1-7-1"
         style="fill:#d10000;fill-opacity:1;stroke:#000000;stroke-width:3.21623945;stroke-miterlimit:4;stroke-dasharray:none;stroke-dashoffset:0;stroke-opacity:1" />
      <circle
         r="8.39188"
         cy="973.3609"
         cx="861.6499"
         id="path4138-4-1-1-9-6"
         style="fill:#009300;fill-opacity:1;stroke:#000000;stroke-width:3.21623945;stroke-miterlimit:4;stroke-dasharray:none;stroke-dashoffset:0;stroke-opacity:1" />
      <circle
         r="8.39188"
         cy="941.83368"
         cx="860.46826"
         id="path4138-1-5-1-3-3"
         style="fill:#0088ff;fill-opacity:1;stroke:#000000;stroke-width:3.21623945;stroke-miterlimit:4;stroke-dasharray:none;stroke-dashoffset:0;stroke-opacity:1" />
      <path
         sodipodi:nodetypes="cc"
         inkscape:connector-curvature="0"
         id="path8013-8-3-8-2"
         d="m 864.42839,933.60298 19.13162,-29.00293"
         style="fill:none;fill-rule:evenodd;stroke:#ff00f4;stroke-width:1;stroke-linecap:butt;stroke-linejoin:miter;stroke-miterlimit:4;stroke-dasharray:2, 1;stroke-dashoffset:0;stroke-opacity:1" />
    </g>
    <g
       id="g12626">
      <rect
         y="854.22107"
         x="1001.8588"
         height="196.2823"
         width="196.2823"
         id="rect4136-5-9-2-1-0"
         style="fill:none;fill-opacity:1;stroke:#000000;stroke-width:3.71769452;stroke-miterlimit:4;stroke-dasharray:none;stroke-dashoffset:0;stroke-opacity:1" />
      <g
         transform="translate(15.178505,0)"
         id="g12513">
        <circle
           style="fill:#000000;fill-opacity:1;stroke:#000000;stroke-width:3.21623945;stroke-miterlimit:4;stroke-dasharray:none;stroke-dashoffset:0;stroke-opacity:1"
           id="path4138-11-1-7-1-7"
           cx="1055.3572"
           cy="964.86218"
           r="8.39188" />
        <circle
           style="fill:#000000;fill-opacity:1;stroke:#000000;stroke-width:3.21623945;stroke-miterlimit:4;stroke-dasharray:none;stroke-dashoffset:0;stroke-opacity:1"
           id="path4138-11-1-7-1-0"
           cx="1084.8215"
           cy="964.86218"
           r="8.39188" />
        <circle
           style="fill:#000000;fill-opacity:1;stroke:#000000;stroke-width:3.21623945;stroke-miterlimit:4;stroke-dasharray:none;stroke-dashoffset:0;stroke-opacity:1"
           id="path4138-11-1-7-1-4"
           cx="1114.2858"
           cy="964.86218"
           r="8.39188" />
      </g>
    </g>
    <g
       id="g12633">
      <path
         inkscape:connector-curvature="0"
         id="path8017-8"
         d="m 1292.4896,937.0555 -7.2999,16.79035"
         style="fill:none;fill-rule:evenodd;stroke:#ffd500;stroke-width:3;stroke-linecap:butt;stroke-linejoin:miter;stroke-miterlimit:4;stroke-dasharray:none;stroke-opacity:1" />
      <path
         inkscape:connector-curvature="0"
         id="path8015-4"
         d="m 1269.5434,938.20083 7.9686,15.42932"
         style="fill:none;fill-rule:evenodd;stroke:#00ffff;stroke-width:3;stroke-linecap:butt;stroke-linejoin:miter;stroke-miterlimit:4;stroke-dasharray:none;stroke-opacity:1" />
      <path
         inkscape:connector-curvature="0"
         id="path8013-0"
         d="m 1274.6109,930.0574 13.9652,-0.35525"
         style="fill:none;fill-rule:evenodd;stroke:#ff00f4;stroke-width:3;stroke-linecap:butt;stroke-linejoin:miter;stroke-miterlimit:4;stroke-dasharray:none;stroke-opacity:1" />
      <rect
         y="854.22107"
         x="1201.8589"
         height="196.2823"
         width="196.2823"
         id="rect4136-0"
         style="fill:none;fill-opacity:1;stroke:#000000;stroke-width:3.71769452;stroke-miterlimit:4;stroke-dasharray:none;stroke-dashoffset:0;stroke-opacity:1" />
      <circle
         transform="matrix(-0.05132074,0.99868222,0.99868222,0.05132074,0,0)"
         r="8.39188"
         cy="1342.9"
         cx="861.88391"
         id="path4138-2"
         style="fill:#d10000;fill-opacity:1;stroke:#000000;stroke-width:3.21623945;stroke-miterlimit:4;stroke-dasharray:none;stroke-dashoffset:0;stroke-opacity:1" />
      <circle
         transform="matrix(-0.05132074,0.99868222,0.99868222,0.05132074,0,0)"
         r="8.39188"
         cy="1328.4531"
         cx="894.51355"
         id="path4138-4-2"
         style="fill:#009300;fill-opacity:1;stroke:#000000;stroke-width:3.21623945;stroke-miterlimit:4;stroke-dasharray:none;stroke-dashoffset:0;stroke-opacity:1" />
      <circle
         transform="matrix(-0.05132074,0.99868222,0.99868222,0.05132074,0,0)"
         r="8.39188"
         cy="1312.2908"
         cx="864.71399"
         id="path4138-1-9"
         style="fill:#0088ff;fill-opacity:1;stroke:#000000;stroke-width:3.21623945;stroke-miterlimit:4;stroke-dasharray:none;stroke-dashoffset:0;stroke-opacity:1" />
    </g>
  </g>
</svg>
